Code-Along 8: Factor Variables – R is Your Friend
…
Change the level “Red” to “Red!” and “Fearless” to “Fearless - Taylors Version” in the Album variable:

fct_collapse()

What does this function do? When would you want to use it?

eras_data |> 
  mutate(Genre = fct_collapse(.f= Album,
                       "country pop" = c("Fearless"),
                       "pop rock" = c("Speak Now","Red"),
                       "electropop" = c("1989","Reputation","Lover"),
                       "folk pop" = c("Folklore","Evermore"),
                       "alt-pop" = "Midnights"))

# A tibble: 45 × 5
   Song                                   Album    Length Single Genre      
   <chr>                                  <chr>     <dbl> <chr>  <fct>      
 1 Miss Americana & the Heartbreak Prince Lover      3.9  N      electropop 
 2 Cruel Summer                           Lover      2.97 Y      electropop 
 3 The Man                                Lover      3.17 Y      electropop 
 4 You Need to Calm Down                  Lover      2.85 Y      electropop 
 5 Lover                                  Lover      3.68 Y      electropop 
 6 The Archer                             Lover      3.52 N      electropop 
 7 Fearless                               Fearless   4.03 Y      country pop
 8 You Belong With Me                     Fearless   3.85 Y      country pop
 9 Love Story                             Fearless   3.92 Y      country pop
10 'tis the damn season                   Evermore   3.82 N      folk pop   
# ℹ 35 more rows
…
