Code-Along 9: Strings and Dates – R is Your Friend
…
What was the average and total amount of lost time by state in terms of years?

nsf_terminations |> 
  group_by(org_state) |> 
  summarize(mean_years = mean(missing_length / years(1)),
            total_years = sum(missing_length / years(1)),
            n = n()) |> 
  arrange(desc(total_years))

# A tibble: 50 × 4
   org_state mean_years total_years     n
   <chr>          <dbl>       <dbl> <int>
 1 CA              1.17       131.    112
 2 TX              1.42       103.     73
 3 NY              1.32        90.7    69
 4 VA              1.67        68.4    41
 5 MI              1.58        65.0    41
 6 CO              1.56        60.8    39
 7 IL              1.23        51.5    42
 8 GA              1.28        51.2    40
 9 AZ              1.60        51.1    32
10 MA              1.00        51.0    51
# ℹ 40 more rows
…
